CPU_Garage_restored/baseline.vcd
$comment
Copyright (C) 2017  Intel Corporation. All rights reserved.
Your use of Intel Corporation's design tools, logic functions 
and other software and tools, and its AMPP partner logic 
functions, and any output files from any of the foregoing 
(including device programming or simulation files), and any 
associated documentation or information are expressly subject 
to the terms and conditions of the Intel Program License 
Subscription Agreement, the Intel Quartus Prime License Agreement,
the Intel MegaCore Function License Agreement, or other 
applicable license agreement, including, without limitation, 
that your use is for the sole purpose of programming logic 
devices manufactured by Intel and sold by Intel or its 
authorized distributors.  Please refer to the applicable 
agreement for further details.
$end

$date 
  03/28/2022 10:04:07 
$end
$version 
 QUARTUS_VCD_EXPORT 1.0 
$end
$timescale
  1 ps
$end
$scope module cpu_inst $end
$var reg 1 ! clk $end
$var reg 1 " resetN $end
$var reg 1 # load_a $end
$var reg 1 $ load_d $end
$var reg 1 % jump $end
$var reg 1 & m[15] $end
$var reg 1 ' m[14] $end
$var reg 1 ( m[13] $end
$var reg 1 ) m[12] $end
$var reg 1 * m[11] $end
$var reg 1 + m[10] $end
$var reg 1 , m[9] $end
$var reg 1 - m[8] $end
$var reg 1 . m[7] $end
$var reg 1 / m[6] $end
$var reg 1 0 m[5] $end
$var reg 1 1 m[4] $end
$var reg 1 2 m[3] $end
$var reg 1 3 m[2] $end
$var reg 1 4 m[1] $end
$var reg 1 5 m[0] $end
$var reg 1 6 write_m $end
$var reg 1 7 a[15] $end
$var reg 1 8 a[14] $end
$var reg 1 9 a[13] $end
$var reg 1 : a[12] $end
$var reg 1 ; a[11] $end
$var reg 1 < a[10] $end
$var reg 1 = a[9] $end
$var reg 1 > a[8] $end
$var reg 1 ? a[7] $end
$var reg 1 @ a[6] $end
$var reg 1 A a[5] $end
$var reg 1 B a[4] $end
$var reg 1 C a[3] $end
$var reg 1 D a[2] $end
$var reg 1 E a[1] $end
$var reg 1 F a[0] $end
$var reg 1 G d[15] $end
$var reg 1 H d[14] $end
$var reg 1 I d[13] $end
$var reg 1 J d[12] $end
$var reg 1 K d[11] $end
$var reg 1 L d[10] $end
$var reg 1 M d[9] $end
$var reg 1 N d[8] $end
$var reg 1 O d[7] $end
$var reg 1 P d[6] $end
$var reg 1 Q d[5] $end
$var reg 1 R d[4] $end
$var reg 1 S d[3] $end
$var reg 1 T d[2] $end
$var reg 1 U d[1] $end
$var reg 1 V d[0] $end
$var reg 1 W inst[15] $end
$var reg 1 X inst[14] $end
$var reg 1 Y inst[13] $end
$var reg 1 Z inst[12] $end
$var reg 1 [ inst[11] $end
$var reg 1 \ inst[10] $end
$var reg 1 ] inst[9] $end
$var reg 1 ^ inst[8] $end
$var reg 1 _ inst[7] $end
$var reg 1 ` inst[6] $end
$var reg 1 a inst[5] $end
$var reg 1 b inst[4] $end
$var reg 1 c inst[3] $end
$var reg 1 d inst[2] $end
$var reg 1 e inst[1] $end
$var reg 1 f inst[0] $end
$var reg 1 g inst_addr[14] $end
$var reg 1 h inst_addr[13] $end
$var reg 1 i inst_addr[12] $end
$var reg 1 j inst_addr[11] $end
$var reg 1 k inst_addr[10] $end
$var reg 1 l inst_addr[9] $end
$var reg 1 m inst_addr[8] $end
$var reg 1 n inst_addr[7] $end
$var reg 1 o inst_addr[6] $end
$var reg 1 p inst_addr[5] $end
$var reg 1 q inst_addr[4] $end
$var reg 1 r inst_addr[3] $end
$var reg 1 s inst_addr[2] $end
$var reg 1 t inst_addr[1] $end
$var reg 1 u inst_addr[0] $end
$var reg 1 v pc[14] $end
$var reg 1 w pc[13] $end
$var reg 1 x pc[12] $end
$var reg 1 y pc[11] $end
$var reg 1 z pc[10] $end
$var reg 1 { pc[9] $end
$var reg 1 | pc[8] $end
$var reg 1 } pc[7] $end
$var reg 1 ~ pc[6] $end
$var reg 1 !! pc[5] $end
$var reg 1 !" pc[4] $end
$var reg 1 !# pc[3] $end
$var reg 1 !$ pc[2] $end
$var reg 1 !% pc[1] $end
$var reg 1 !& pc[0] $end
$upscope $end
$scope module ram_inst $end
$var reg 1 !' clock_a $end
$var reg 1 !( clock_b $end
$var reg 1 !) wren_a $end
$var reg 1 !* wren_b $end
$var reg 1 !+ address_a[9] $end
$var reg 1 !, address_a[8] $end
$var reg 1 !- address_a[7] $end
$var reg 1 !. address_a[6] $end
$var reg 1 !/ address_a[5] $end
$var reg 1 !0 address_a[4] $end
$var reg 1 !1 address_a[3] $end
$var reg 1 !2 address_a[2] $end
$var reg 1 !3 address_a[1] $end
$var reg 1 !4 address_a[0] $end
$var reg 1 !5 address_b[9] $end
$var reg 1 !6 address_b[8] $end
$var reg 1 !7 address_b[7] $end
$var reg 1 !8 address_b[6] $end
$var reg 1 !9 address_b[5] $end
$var reg 1 !: address_b[4] $end
$var reg 1 !; address_b[3] $end
$var reg 1 !< address_b[2] $end
$var reg 1 != address_b[1] $end
$var reg 1 !> address_b[0] $end
$var reg 1 !? data_a[15] $end
$var reg 1 !@ data_a[14] $end
$var reg 1 !A data_a[13] $end
$var reg 1 !B data_a[12] $end
$var reg 1 !C data_a[11] $end
$var reg 1 !D data_a[10] $end
$var reg 1 !E data_a[9] $end
$var reg 1 !F data_a[8] $end
$var reg 1 !G data_a[7] $end
$var reg 1 !H data_a[6] $end
$var reg 1 !I data_a[5] $end
$var reg 1 !J data_a[4] $end
$var reg 1 !K data_a[3] $end
$var reg 1 !L data_a[2] $end
$var reg 1 !M data_a[1] $end
$var reg 1 !N data_a[0] $end
$var reg 1 !O data_b[15] $end
$var reg 1 !P data_b[14] $end
$var reg 1 !Q data_b[13] $end
$var reg 1 !R data_b[12] $end
$var reg 1 !S data_b[11] $end
$var reg 1 !T data_b[10] $end
$var reg 1 !U data_b[9] $end
$var reg 1 !V data_b[8] $end
$var reg 1 !W data_b[7] $end
$var reg 1 !X data_b[6] $end
$var reg 1 !Y data_b[5] $end
$var reg 1 !Z data_b[4] $end
$var reg 1 ![ data_b[3] $end
$var reg 1 !\ data_b[2] $end
$var reg 1 !] data_b[1] $end
$var reg 1 !^ data_b[0] $end
$var reg 1 !_ q_a[15] $end
$var reg 1 !` q_a[14] $end
$var reg 1 !a q_a[13] $end
$var reg 1 !b q_a[12] $end
$var reg 1 !c q_a[11] $end
$var reg 1 !d q_a[10] $end
$var reg 1 !e q_a[9] $end
$var reg 1 !f q_a[8] $end
$var reg 1 !g q_a[7] $end
$var reg 1 !h q_a[6] $end
$var reg 1 !i q_a[5] $end
$var reg 1 !j q_a[4] $end
$var reg 1 !k q_a[3] $end
$var reg 1 !l q_a[2] $end
$var reg 1 !m q_a[1] $end
$var reg 1 !n q_a[0] $end
$var reg 1 !o q_b[15] $end
$var reg 1 !p q_b[14] $end
$var reg 1 !q q_b[13] $end
$var reg 1 !r q_b[12] $end
$var reg 1 !s q_b[11] $end
$var reg 1 !t q_b[10] $end
$var reg 1 !u q_b[9] $end
$var reg 1 !v q_b[8] $end
$var reg 1 !w q_b[7] $end
$var reg 1 !x q_b[6] $end
$var reg 1 !y q_b[5] $end
$var reg 1 !z q_b[4] $end
$var reg 1 !{ q_b[3] $end
$var reg 1 !| q_b[2] $end
$var reg 1 !} q_b[1] $end
$var reg 1 !~ q_b[0] $end
$upscope $end
$scope module rom_inst $end
$var reg 1 "! clock $end
$var reg 1 "" address[9] $end
$var reg 1 "# address[8] $end
$var reg 1 "$ address[7] $end
$var reg 1 "% address[6] $end
$var reg 1 "& address[5] $end
$var reg 1 "' address[4] $end
$var reg 1 "( address[3] $end
$var reg 1 ") address[2] $end
$var reg 1 "* address[1] $end
$var reg 1 "+ address[0] $end
$var reg 1 ", q[15] $end
$var reg 1 "- q[14] $end
$var reg 1 ". q[13] $end
$var reg 1 "/ q[12] $end
$var reg 1 "0 q[11] $end
$var reg 1 "1 q[10] $end
$var reg 1 "2 q[9] $end
$var reg 1 "3 q[8] $end
$var reg 1 "4 q[7] $end
$var reg 1 "5 q[6] $end
$var reg 1 "6 q[5] $end
$var reg 1 "7 q[4] $end
$var reg 1 "8 q[3] $end
$var reg 1 "9 q[2] $end
$var reg 1 ": q[1] $end
$var reg 1 "; q[0] $end
$upscope $end
$enddefinitions $end
#0
$dumpvars
0!
X"
X#
X$
X%
X&
X'
X(
X)
X*
X+
X,
X-
X.
X/
X0
X1
X2
X3
X4
X5
X6
X7
X8
X9
X:
X;
X<
X=
X>
X?
X@
XA
XB
XC
XD
XE
XF
XG
XH
XI
XJ
XK
XL
XM
XN
XO
XP
XQ
XR
XS
XT
XU
XV
XW
XX
XY
XZ
X[
X\
X]
X^
X_
X`
Xa
Xb
Xc
Xd
Xe
Xf
Xg
Xh
Xi
Xj
Xk
Xl
Xm
Xn
Xo
Xp
Xq
Xr
Xs
Xt
Xu
Xv
Xw
Xx
Xy
Xz
X{
X|
X}
X~
X!!
X!"
X!#
X!$
X!%
X!&
X!'
X!(
X!)
X!*
X!+
X!,
X!-
X!.
X!/
X!0
X!1
X!2
X!3
X!4
X!5
X!6
X!7
X!8
X!9
X!:
X!;
X!<
X!=
X!>
X!?
X!@
X!A
X!B
X!C
X!D
X!E
X!F
X!G
X!H
X!I
X!J
X!K
X!L
X!M
X!N
X!O
X!P
X!Q
X!R
X!S
X!T
X!U
X!V
X!W
X!X
X!Y
X!Z
X![
X!\
X!]
X!^
X!_
X!`
X!a
X!b
X!c
X!d
X!e
X!f
X!g
X!h
X!i
X!j
X!k
X!l
X!m
X!n
X!o
X!p
X!q
X!r
X!s
X!t
X!u
X!v
X!w
X!x
X!y
X!z
X!{
X!|
X!}
X!~
X"!
X""
X"#
X"$
X"%
X"&
X"'
X"(
X")
X"*
X"+
X",
X"-
X".
X"/
X"0
X"1
X"2
X"3
X"4
X"5
X"6
X"7
X"8
X"9
X":
X";
$end
#500
$comment Sample -16 (Start) $end
1!
0"
1#
0$
0%
0&
0'
0(
0)
0*
0+
0,
0-
0.
0/
00
01
02
03
04
05
06
07
08
09
0:
0;
0<
0=
0>
0?
0@
0A
0B
0C
0D
0E
0F
0G
1H
0I
0J
1K
1L
1M
0N
0O
0P
1Q
0R
0S
0T
0U
0V
0W
0X
1Y
0Z
0[
1\
1]
1^
0_
0`
0a
1b
0c
0d
0e
0f
0g
0h
0i
0j
0k
0l
0m
0n
0o
0p
0q
0r
0s
0t
0u
0v
0w
0x
0y
0z
0{
0|
0}
0~
0!!
0!"
0!#
0!$
0!%
0!&
1!'
1!(
0!)
1!*
0!+
0!,
0!-
0!.
0!/
0!0
0!1
0!2
0!3
0!4
0!5
0!6
0!7
0!8
0!9
0!:
1!;
0!<
0!=
1!>
1!?
0!@
1!A
1!B
0!C
0!D
0!E
1!F
1!G
1!H
0!I
1!J
1!K
1!L
1!M
1!N
0!O
0!P
0!Q
0!R
0!S
0!T
0!U
0!V
0!W
0!X
0!Y
0!Z
0![
0!\
0!]
0!^
0!_
0!`
0!a
0!b
0!c
0!d
0!e
0!f
0!g
0!h
0!i
0!j
0!k
0!l
0!m
0!n
0!o
0!p
0!q
0!r
0!s
0!t
0!u
0!v
0!w
0!x
0!y
0!z
0!{
0!|
0!}
0!~
1"!
0""
0"#
0"$
0"%
0"&
0"'
0"(
0")
0"*
0"+
0",
0"-
1".
0"/
0"0
1"1
1"2
1"3
0"4
0"5
0"6
1"7
0"8
0"9
0":
0";
#1000
0!
#1500
1!
#2000
0!
#2500
1!
#3000
0!
#3500
1!
1!=
0!>
#4000
0!
#4500
1!
#5000
0!
#5500
1!
#6000
0!
#6500
1!
#7000
0!
#7500
1!
#8000
0!
#8500
1!
#9000
0!
#9500
1!
#10000
0!
#10500
1!
#11000
0!
#11500
1!
#12000
0!
#12500
1!
#13000
0!
#13500
1!
#14000
0!
#14500
1!
#15000
0!
#15500
1!
#16000
0!
#16500
$comment Sample 0 (Trigger) $end
1!
1"
0!*
#17000
0!
#17500
1!
#18000
0!
#18500
1!
19
1<
1=
1>
1B
1u
1!&
1!+
1!,
1!0
1"+
#19000
0!
#19500
1!
0#
1$
1W
1X
1[
0]
0^
0!?
0!B
1!D
1!E
0!G
0!H
0!K
0!L
0!M
0!N
1",
1"-
1"0
0"2
0"3
#20000
0!
#20500
1!
0H
1I
0K
1N
0Q
1R
1t
0u
1!%
0!&
1"*
0"+
#21000
0!
#21500
1!
1#
0$
1%
0W
0X
0Y
0[
0\
1]
1a
0b
1c
1e
1f
0!A
0!D
0!E
0!F
0!J
0",
0"-
0".
0"0
0"1
1"2
1"6
0"7
1"8
1":
1";
#22000
0!
#22500
1!
09
0<
0>
1A
0B
1C
1E
1F
1u
1!&
0!,
1!/
0!0
1!1
1!3
1!4
1"+
#23000
0!
#23500
1!
0#
0%
16
1W
1X
1Y
1^
0a
0e
0f
1!)
1!A
1!D
1!E
1!F
1!J
1!a
1!d
1!e
1!f
1!j
1",
1"-
1".
1"3
0"6
0":
0";
#24000
0!
#24500
1!
06
1s
0t
0u
1!$
0!%
0!&
0!)
1")
0"*
0"+
#25000
0!
#25500
1!
1#
0W
1Z
1\
0]
1a
1b
0c
1!?
1!@
0!A
1!B
1!C
0!D
0!E
0!F
1!G
1!H
1!I
0!J
1!K
1!L
1!M
1!N
0",
1"/
1"1
0"2
1"6
1"7
0"8
#26000
0!
#26500
1!
18
19
1:
1<
0=
1>
1B
0C
0E
0F
1u
1!&
0!+
1!,
1!0
0!1
0!3
0!4
1"+
#27000
0!
#27500
1!
0#
1$
1W
0Z
1[
0^
0a
0!?
1!A
0!C
1!D
1!F
0!G
0!H
1!J
0!K
0!L
0!M
0!N
0!a
0!d
0!e
0!f
0!j
1",
0"/
1"0
0"3
0"6
#28000
0!
#28500
1!
1H
1J
0M
1Q
1t
0u
1!%
0!&
1"*
0"+
#29000
0!
#29500
1!
1#
0$
0W
0X
0Y
0[
0\
0b
1d
0",
0"-
0".
0"0
0"1
0"7
1"9
#30000
0!
#30500
1!
08
09
0:
0<
0>
0A
0B
1D
1u
1!&
0!,
0!/
0!0
1!2
0!@
0!A
0!B
0!D
0!F
0!I
0!J
1"+
#31000
0!
#31500
1!
0#
16
1W
1X
1Y
1]
1^
1c
0d
1!)
1!@
1!A
1!B
1!D
1!F
1!I
1!J
1",
1"-
1".
1"2
1"3
1"8
0"9
#32000
0!
#32500
1!
06
1r
0s
0t
0u
1!#
0!$
0!%
0!&
0!)
1!`
1!a
1!b
1!d
1!f
1!i
1!j
1"(
0")
0"*
0"+
#33000
0!
#33500
1!
1#
0W
0X
0Y
0]
0^
0c
0!@
0!A
0!B
0!D
0!F
0!I
0!J
0",
0"-
0".
0"2
0"3
0"8
#34000
0!
#34500
1!
0D
1u
1!&
0!2
1"+
#35000
0!
#35500
1!
0#
1$
1W
1X
1Y
1[
1\
1b
0!`
0!a
0!b
0!d
0!f
0!i
0!j
1",
1"-
1".
1"0
1"1
1"7
#36000
0!
#36500
1!
0H
0I
0J
0L
0N
0Q
0R
1t
0u
1!%
0!&
1"*
0"+
#37000
0!
#37500
1!
1#
0$
0W
0X
0Y
0[
0\
0b
1f
0",
0"-
0".
0"0
0"1
0"7
1";
#38000
0!
#38500
1!
1F
1u
1!&
1!4
1"+
#39000
0!
#39500
1!
0#
16
1W
1X
1Y
1]
1^
1c
0f
1!)
1",
1"-
1".
1"2
1"3
1"8
0";
#40000
0!
#40500
1!
06
1s
0t
0u
1!$
0!%
0!&
0!)
1")
0"*
0"+
#41000
0!
#41500
1!
1#
0W
0Y
1[
1\
0^
1a
0c
0",
0".
1"0
1"1
0"3
1"6
0"8
#42000
0!
#42500
1!
18
1;
1<
1=
1A
0F
1u
1!&
1!+
1!/
0!4
1"+
#43000
0!
#43500
1!
0#
1$
1W
1Y
0]
0a
1b
1!@
1!C
1!D
1!E
1!I
1",
1".
0"2
0"6
1"7
#44000
0!
#44500
1!
1H
1K
1L
1M
1Q
1t
0u
1!%
0!&
1"*
0"+
#45000
0!
#45500
1!
1#
0$
0W
0X
0Y
0[
0\
0b
1e
0",
0"-
0".
0"0
0"1
0"7
1":
#46000
0!
#46500
1!
1%
08
0;
0<
0=
0A
1E
1u
1!&
0!+
0!/
1!3
0!@
0!C
0!D
0!E
0!I
1"+
#47000
0!
#47500
1!
0#
0%
16
1W
1X
1Y
1]
1^
1c
0e
1!)
1!@
1!C
1!D
1!E
1!I
1",
1"-
1".
1"2
1"3
1"8
0":
#48000
0!
#48500
1!
06
1q
0r
0s
0t
0u
1!"
0!#
0!$
0!%
0!&
0!)
1!`
1!c
1!d
1!e
1!i
1"'
0"(
0")
0"*
0"+
#49000
0!
#49500
1!
1#
1%
0W
0X
0Y
0]
0^
1e
0!@
0!C
0!D
0!E
0!I
0",
0"-
0".
0"2
0"3
1":
#50000
0!
#50500
1!
1C
1u
1!&
1!1
1"+
#51000
0!
#51500
1!
0#
1$
0%
1W
1X
1Y
1[
1\
1b
0c
0e
1!K
1!M
0!`
0!c
0!d
0!e
0!i
1",
1"-
1".
1"0
1"1
1"7
0"8
0":
#52000
0!
#52500
1!
0H
0K
0L
0M
0Q
1S
1U
1t
0u
1!%
0!&
1"*
0"+
#53000
0!
#53500
1!
1#
0$
1%
0W
0X
0Y
0[
0\
0b
1e
1f
0",
0"-
0".
0"0
0"1
0"7
1":
1";
#54000
0!
#54500
1!
0C
1F
1u
1!&
0!1
1!4
0!K
1"+
#55000
0!
#55500
1!
0#
0%
16
1W
1X
1Y
1]
1^
1c
0e
0f
1!)
1!K
1",
1"-
1".
1"2
1"3
1"8
0":
0";
#56000
0!
#56500
1!
06
1s
0t
0u
1!$
0!%
0!&
0!)
1!k
1!m
1")
0"*
0"+
#57000
0!
#57500
1!
1#
1%
0W
0X
0Y
0]
0^
0c
1f
0!K
0",
0"-
0".
0"2
0"3
0"8
1";
#58000
0!
#58500
1!
0%
0E
1u
1!&
0!3
0!M
1"+
#59000
0!
#59500
1!
0#
16
1W
1X
1Y
1Z
1[
1\
1^
1_
1`
1c
0f
1!)
1!N
0!k
0!m
1",
1"-
1".
1"/
1"0
1"1
1"3
1"4
1"5
1"8
0";
#60000
0!
#60500
1!
06
1t
0u
1!%
0!&
0!)
1!M
0!N
1!n
1"*
0"+
#61000
0!
#61500
1!
1#
1%
0W
0X
0Y
0Z
0[
0\
0^
0_
0`
0c
1e
0!M
0",
0"-
0".
0"/
0"0
0"1
0"3
0"4
0"5
0"8
1":
#62000
0!
#62500
1!
0%
1E
0F
1u
1!&
1!3
0!4
1!M
1"+
#63000
0!
#63500
1!
0#
1$
1W
1X
1Y
1Z
1[
1\
1b
0e
1!@
1!C
1!D
1!E
1!I
0!M
1!`
1!c
1!d
1!e
1!i
0!n
1",
1"-
1".
1"/
1"0
1"1
1"7
0":
#64000
0!
#64500
1!
1H
1K
1L
1M
1Q
0S
0U
1r
0s
0t
0u
1!#
0!$
0!%
0!&
1"(
0")
0"*
0"+
#65000
0!
#65500
1!
1#
0$
1%
0W
0X
0Y
0Z
0[
0\
0b
1e
1f
0!@
0!C
0!D
0!E
0!I
0",
0"-
0".
0"/
0"0
0"1
0"7
1":
1";
#66000
0!
#66500
1!
1F
1u
1!&
1!4
1"+
#67000
0!
#67500
1!
0#
1$
0%
1W
1X
1Y
1Z
1\
1_
1`
1b
0e
0f
1!@
1!C
1!D
1!E
1!J
1!L
1!M
0!`
0!c
0!d
0!e
0!i
1!k
1!m
1",
1"-
1".
1"/
1"1
1"4
1"5
1"7
0":
0";
#68000
0!
#68500
1!
0Q
1R
1T
1U
1t
0u
1!%
0!&
0!J
1!K
0!M
1"*
0"+
#69000
0!
#69500
1!
1#
0$
0W
0X
0Y
0Z
0\
0_
0`
0b
1e
0!;
1!<
0!@
0!C
0!D
0!E
0!K
0!L
1!M
0",
0"-
0".
0"/
0"1
0"4
0"5
0"7
1":
#70000
0!
#70500
1!
0F
1u
1!&
0!4
1"+
#71000
0!
#71500
1!
0#
16
1W
1X
1Y
1]
1^
1c
0e
1!)
1!@
1!C
1!D
1!E
1!J
1!L
1!`
1!c
1!d
1!e
1!i
0!k
0!m
1",
1"-
1".
1"2
1"3
1"8
0":
#72000
0!
#72500
1!
06
1s
0t
0u
1!$
0!%
0!&
0!)
0!i
1!j
1!l
1!m
1")
0"*
0"+
#73000
0!
#73500
1!
1#
0W
0X
0Y
0]
0^
0c
1e
0!@
0!C
0!D
0!E
0!J
0!L
0",
0"-
0".
0"2
0"3
0"8
1":
#74000
0!
#74500
1!
1u
1!&
1"+
#75000
0!
#75500
1!
0#
1$
1W
1X
1Y
1Z
1[
1\
1b
0e
1!@
1!C
1!D
1!E
1!J
1!L
1",
1"-
1".
1"/
1"0
1"1
1"7
0":
#76000
0!
#76500
1!
1t
0u
1!%
0!&
1"*
0"+
#77000
0!
#77500
1!
1#
0$
0W
0X
0Y
0Z
0[
0\
1d
0!@
0!C
0!D
0!E
0!J
0!L
0",
0"-
0".
0"/
0"0
0"1
1"9
#78000
0!
#78500
1!
1B
1D
0E
1u
1!&
1!0
1!2
0!3
1!J
1!L
0!M
1"+
#79000
0!
#79500
1!
0#
1%
1W
1X
1Y
1]
1^
0b
0d
1f
1!@
1!C
1!D
1!E
1!M
0!`
0!c
0!d
0!e
0!j
0!l
0!m
1",
1"-
1".
1"2
1"3
0"7
0"9
1";
#80000
0!
#80500
1!
0r
0t
0u
0!#
0!%
0!&
0"(
0"*
0"+
#81000
0!
#81500
1!
1#
0W
0X
0Y
0]
0^
0!@
0!C
0!D
0!E
0!M
0",
0"-
0".
0"2
0"3
#82000
0!
#82500
1!
0%
0B
0D
1F
1u
1!&
0!0
0!2
1!4
0!J
0!L
1"+
#83000
0!
#83500
1!
0#
16
1W
1X
1Y
1Z
1[
1\
1^
1_
1`
1c
0f
1!)
1!M
1!n
1",
1"-
1".
1"/
1"0
1"1
1"3
1"4
1"5
1"8
0";
#84000
0!
#84500
1!
06
1t
0u
1!%
0!&
0!)
1!N
1!m
0!n
1"*
0"+
#85000
0!
#85500
1!
1#
1%
0W
0X
0Y
0Z
0[
0\
0^
0_
0`
0c
1e
0!M
0!N
0",
0"-
0".
0"/
0"0
0"1
0"3
0"4
0"5
0"8
1":
#86000
0!
#86500
1!
0%
1E
0F
1u
1!&
1!3
0!4
1!M
1"+
#87000
0!
#87500
1!
0#
1$
1W
1X
1Y
1Z
1[
1\
1b
0e
1!@
1!C
1!D
1!E
1!J
1!L
1!`
1!c
1!d
1!e
1!j
1!l
1",
1"-
1".
1"/
1"0
1"1
1"7
0":
#88000
0!
#88500
1!
1r
0s
0t
0u
1!#
0!$
0!%
0!&
1"(
0")
0"*
0"+
#89000
0!
#89500
1!
1#
0$
1%
0W
0X
0Y
0Z
0[
0\
0b
1e
1f
0!@
0!C
0!D
0!E
0!J
0!L
0",
0"-
0".
0"/
0"0
0"1
0"7
1":
1";
#90000
0!
#90500
1!
1F
1u
1!&
1!4
1"+
#91000
0!
#91500
1!
0#
1$
0%
1W
1X
1Y
1Z
1\
1_
1`
1b
0e
0f
1!@
1!C
1!D
1!E
1!K
1!L
0!M
0!`
0!c
0!d
0!e
0!j
1!k
0!l
1",
1"-
1".
1"/
1"1
1"4
1"5
1"7
0":
0";
#92000
0!
#92500
1!
0R
1S
0U
1t
0u
1!%
0!&
0!K
0!L
1!M
1"*
0"+
#93000
0!
#93500
1!
1#
0$
1%
0W
0X
0Y
0Z
0\
0_
0`
0b
1e
0!@
0!C
0!D
0!E
0!M
0",
0"-
0".
0"/
0"1
0"4
0"5
0"7
1":
#94000
0!
#94500
1!
0F
1u
1!&
0!4
1"+
#95000
0!
#95500
1!
0#
0%
16
1W
1X
1Y
1]
1^
1c
0e
1!)
1!@
1!C
1!D
1!E
1!K
1!L
1!`
1!c
1!d
1!e
1!j
0!k
1!l
1",
1"-
1".
1"2
1"3
1"8
0":
#96000
0!
#96500
1!
06
1s
0t
0u
1!$
0!%
0!&
0!)
0!j
1!k
0!m
1")
0"*
0"+
#97000
0!
#97500
1!
1#
1%
0W
0X
0Y
0]
0^
0c
1e
0!@
0!C
0!D
0!E
0!K
0!L
0",
0"-
0".
0"2
0"3
0"8
1":
#98000
0!
#98500
1!
1u
1!&
1"+
#99000
0!
#99500
1!
0#
1$
0%
1W
1X
1Y
1Z
1[
1\
1b
0e
1!@
1!C
1!D
1!E
1!K
1!L
1",
1"-
1".
1"/
1"0
1"1
1"7
0":
#100000
0!
#100500
1!
1t
0u
1!%
0!&
1"*
0"+
#101000
0!
#101500
1!
1#
0$
0W
0X
0Y
0Z
0[
0\
1d
0!@
0!C
0!D
0!E
0!K
0!L
0",
0"-
0".
0"/
0"0
0"1
1"9
#102000
0!
#102500
1!
1B
1D
0E
1u
1!&
1!0
1!2
0!3
1!L
1"+
#103000
0!
#103500
1!
0#
1%
1W
1X
1Y
1]
1^
0b
0d
1f
1!@
1!C
1!D
1!E
1!K
0!`
0!c
0!d
0!e
0!k
0!l
1",
1"-
1".
1"2
1"3
0"7
0"9
1";
#104000
0!
#104500
1!
0r
0t
0u
0!#
0!%
0!&
0"(
0"*
0"+
#105000
0!
#105500
1!
1#
0W
0X
0Y
0]
0^
0!@
0!C
0!D
0!E
0!K
0",
0"-
0".
0"2
0"3
#106000
0!
#106500
1!
0%
0B
0D
1F
1u
1!&
0!0
0!2
1!4
0!L
1"+
#107000
0!
#107500
1!
0#
16
1W
1X
1Y
1Z
1[
1\
1^
1_
1`
1c
0f
1!)
1!M
1!N
1!m
1",
1"-
1".
1"/
1"0
1"1
1"3
1"4
1"5
1"8
0";
#108000
0!
#108500
1!
06
1t
0u
1!%
0!&
0!)
1!L
0!M
0!N
1!n
1"*
0"+
#109000
0!
#109500
1!
1#
1%
0W
0X
0Y
0Z
0[
0\
0^
0_
0`
0c
1e
0!L
0",
0"-
0".
0"/
0"0
0"1
0"3
0"4
0"5
0"8
1":
#110000
0!
#110500
1!
1E
0F
1u
1!&
1!3
0!4
1"+
#111000
0!
#111500
1!
0#
1$
0%
1W
1X
1Y
1Z
1[
1\
1b
0e
1!@
1!C
1!D
1!E
1!K
1!L
1!`
1!c
1!d
1!e
1!k
1!l
0!m
0!n
1",
1"-
1".
1"/
1"0
1"1
1"7
0":
#112000
0!
#112500
1!
1r
0s
0t
0u
1!#
0!$
0!%
0!&
1"(
0")
0"*
0"+
#113000
0!
#113500
1!
1#
0$
1%
0W
0X
0Y
0Z
0[
0\
0b
1e
1f
0!@
0!C
0!D
0!E
0!K
0!L
0",
0"-
0".
0"/
0"0
0"1
0"7
1":
1";
#114000
0!
#114500
1!
1F
1u
1!&
1!4
1"+
#115000
0!
#115500
1!
0#
1$
0%
1W
1X
1Y
1Z
1\
1_
1`
1b
0e
0f
1!@
1!C
1!D
1!E
1!M
0!`
0!c
0!d
0!e
0!l
1!m
1",
1"-
1".
1"/
1"1
1"4
1"5
1"7
0":
0";
#116000
0!
#116500
1!
0S
0T
1U
1t
0u
1!%
0!&
0!E
1!F
1!G
1!H
1!I
1!J
1!K
0!M
1"*
0"+
#117000
0!
#117500
1!
1#
0$
0W
0X
0Y
0Z
0\
0_
0`
0b
1e
0!@
0!C
0!D
0!F
0!G
0!H
0!I
0!J
0!K
1!M
0",
0"-
0".
0"/
0"1
0"4
0"5
0"7
1":
#118000
0!
#118500
1!
0F
1u
1!&
0!4
1"+
#119000
0!
#119500
1!
0#
16
1W
1X
1Y
1]
1^
1c
0e
1!)
1!@
1!C
1!D
1!E
1!`
1!c
1!d
1!e
1!l
0!m
1",
1"-
1".
1"2
1"3
1"8
0":
#120000
0!
#120500
1!
06
1s
0t
0u
1!$
0!%
0!&
0!)
0!k
0!l
1!m
1")
0"*
0"+
#121000
0!
#121500
1!
1#
0W
0X
0Y
0]
0^
0c
1e
0!@
0!C
0!D
0!E
0",
0"-
0".
0"2
0"3
0"8
1":
#122000
0!
#122500
1!
1u
1!&
1"+
#123000
0!
#123500
1!
0#
1$
1W
1X
1Y
1Z
1[
1\
1b
0e
1!@
1!C
1!D
1!E
1",
1"-
1".
1"/
1"0
1"1
1"7
0":
#124000
0!
#124500
1!
1t
0u
1!%
0!&
1"*
0"+
#125000
0!
#125500
1!
1#
0$
0W
0X
0Y
0Z
0[
0\
1d
0!@
0!C
0!D
0!E
0",
0"-
0".
0"/
0"0
0"1
1"9
#126000
0!
#126500
1!
1B
1D
0E
1u
1!&
1!0
1!2
0!3
0!M
1"+
#127000
0!
#127500
$comment Sample 111 (End) $end
1!
0#
1%
1W
1X
1Y
1]
1^
0b
0d
1f
1!@
1!C
1!D
1!E
1!M
0!`
0!c
0!d
0!e
0!m
1",
1"-
1".
1"2
1"3
0"7
0"9
1";
