CPU_Garage_restored/CPU_Garage_1588c933.vcd
$comment
Copyright (C) 2017  Intel Corporation. All rights reserved.
Your use of Intel Corporation's design tools, logic functions 
and other software and tools, and its AMPP partner logic 
functions, and any output files from any of the foregoing 
(including device programming or simulation files), and any 
associated documentation or information are expressly subject 
to the terms and conditions of the Intel Program License 
Subscription Agreement, the Intel Quartus Prime License Agreement,
the Intel MegaCore Function License Agreement, or other 
applicable license agreement, including, without limitation, 
that your use is for the sole purpose of programming logic 
devices manufactured by Intel and sold by Intel or its 
authorized distributors.  Please refer to the applicable 
agreement for further details.
$end

$date 
  03/30/2022 21:17:18 
$end
$version 
 QUARTUS_VCD_EXPORT 1.0 
$end
$timescale
  1 ps
$end
$scope module cpu_inst $end
$var reg 1 ! clk $end
$var reg 1 " resetN $end
$var reg 1 # load_a $end
$var reg 1 $ load_d $end
$var reg 1 % jump $end
$var reg 1 & write_m $end
$var reg 1 ' a[15] $end
$var reg 1 ( a[14] $end
$var reg 1 ) a[13] $end
$var reg 1 * a[12] $end
$var reg 1 + a[11] $end
$var reg 1 , a[10] $end
$var reg 1 - a[9] $end
$var reg 1 . a[8] $end
$var reg 1 / a[7] $end
$var reg 1 0 a[6] $end
$var reg 1 1 a[5] $end
$var reg 1 2 a[4] $end
$var reg 1 3 a[3] $end
$var reg 1 4 a[2] $end
$var reg 1 5 a[1] $end
$var reg 1 6 a[0] $end
$var reg 1 7 d[15] $end
$var reg 1 8 d[14] $end
$var reg 1 9 d[13] $end
$var reg 1 : d[12] $end
$var reg 1 ; d[11] $end
$var reg 1 < d[10] $end
$var reg 1 = d[9] $end
$var reg 1 > d[8] $end
$var reg 1 ? d[7] $end
$var reg 1 @ d[6] $end
$var reg 1 A d[5] $end
$var reg 1 B d[4] $end
$var reg 1 C d[3] $end
$var reg 1 D d[2] $end
$var reg 1 E d[1] $end
$var reg 1 F d[0] $end
$var reg 1 G inst[15] $end
$var reg 1 H inst[14] $end
$var reg 1 I inst[13] $end
$var reg 1 J inst[12] $end
$var reg 1 K inst[11] $end
$var reg 1 L inst[10] $end
$var reg 1 M inst[9] $end
$var reg 1 N inst[8] $end
$var reg 1 O inst[7] $end
$var reg 1 P inst[6] $end
$var reg 1 Q inst[5] $end
$var reg 1 R inst[4] $end
$var reg 1 S inst[3] $end
$var reg 1 T inst[2] $end
$var reg 1 U inst[1] $end
$var reg 1 V inst[0] $end
$var reg 1 W stall $end
$var reg 1 X sel_pc $end
$var reg 1 Y pc[14] $end
$var reg 1 Z pc[13] $end
$var reg 1 [ pc[12] $end
$var reg 1 \ pc[11] $end
$var reg 1 ] pc[10] $end
$var reg 1 ^ pc[9] $end
$var reg 1 _ pc[8] $end
$var reg 1 ` pc[7] $end
$var reg 1 a pc[6] $end
$var reg 1 b pc[5] $end
$var reg 1 c pc[4] $end
$var reg 1 d pc[3] $end
$var reg 1 e pc[2] $end
$var reg 1 f pc[1] $end
$var reg 1 g pc[0] $end
$var reg 1 h inst_addr[14] $end
$var reg 1 i inst_addr[13] $end
$var reg 1 j inst_addr[12] $end
$var reg 1 k inst_addr[11] $end
$var reg 1 l inst_addr[10] $end
$var reg 1 m inst_addr[9] $end
$var reg 1 n inst_addr[8] $end
$var reg 1 o inst_addr[7] $end
$var reg 1 p inst_addr[6] $end
$var reg 1 q inst_addr[5] $end
$var reg 1 r inst_addr[4] $end
$var reg 1 s inst_addr[3] $end
$var reg 1 t inst_addr[2] $end
$var reg 1 u inst_addr[1] $end
$var reg 1 v inst_addr[0] $end
$upscope $end
$scope module ram_inst $end
$var reg 1 w wren_a $end
$var reg 1 x address_a[9] $end
$var reg 1 y address_a[8] $end
$var reg 1 z address_a[7] $end
$var reg 1 { address_a[6] $end
$var reg 1 | address_a[5] $end
$var reg 1 } address_a[4] $end
$var reg 1 ~ address_a[3] $end
$var reg 1 !! address_a[2] $end
$var reg 1 !" address_a[1] $end
$var reg 1 !# address_a[0] $end
$var reg 1 !$ data_a[15] $end
$var reg 1 !% data_a[14] $end
$var reg 1 !& data_a[13] $end
$var reg 1 !' data_a[12] $end
$var reg 1 !( data_a[11] $end
$var reg 1 !) data_a[10] $end
$var reg 1 !* data_a[9] $end
$var reg 1 !+ data_a[8] $end
$var reg 1 !, data_a[7] $end
$var reg 1 !- data_a[6] $end
$var reg 1 !. data_a[5] $end
$var reg 1 !/ data_a[4] $end
$var reg 1 !0 data_a[3] $end
$var reg 1 !1 data_a[2] $end
$var reg 1 !2 data_a[1] $end
$var reg 1 !3 data_a[0] $end
$var reg 1 !4 q_a[15] $end
$var reg 1 !5 q_a[14] $end
$var reg 1 !6 q_a[13] $end
$var reg 1 !7 q_a[12] $end
$var reg 1 !8 q_a[11] $end
$var reg 1 !9 q_a[10] $end
$var reg 1 !: q_a[9] $end
$var reg 1 !; q_a[8] $end
$var reg 1 !< q_a[7] $end
$var reg 1 != q_a[6] $end
$var reg 1 !> q_a[5] $end
$var reg 1 !? q_a[4] $end
$var reg 1 !@ q_a[3] $end
$var reg 1 !A q_a[2] $end
$var reg 1 !B q_a[1] $end
$var reg 1 !C q_a[0] $end
$upscope $end
$scope module rom_inst $end
$var reg 1 !D clock $end
$var reg 1 !E address[9] $end
$var reg 1 !F address[8] $end
$var reg 1 !G address[7] $end
$var reg 1 !H address[6] $end
$var reg 1 !I address[5] $end
$var reg 1 !J address[4] $end
$var reg 1 !K address[3] $end
$var reg 1 !L address[2] $end
$var reg 1 !M address[1] $end
$var reg 1 !N address[0] $end
$var reg 1 !O q[15] $end
$var reg 1 !P q[14] $end
$var reg 1 !Q q[13] $end
$var reg 1 !R q[12] $end
$var reg 1 !S q[11] $end
$var reg 1 !T q[10] $end
$var reg 1 !U q[9] $end
$var reg 1 !V q[8] $end
$var reg 1 !W q[7] $end
$var reg 1 !X q[6] $end
$var reg 1 !Y q[5] $end
$var reg 1 !Z q[4] $end
$var reg 1 ![ q[3] $end
$var reg 1 !\ q[2] $end
$var reg 1 !] q[1] $end
$var reg 1 !^ q[0] $end
$upscope $end
$enddefinitions $end
#0
$dumpvars
0!
X"
X#
X$
X%
X&
X'
X(
X)
X*
X+
X,
X-
X.
X/
X0
X1
X2
X3
X4
X5
X6
X7
X8
X9
X:
X;
X<
X=
X>
X?
X@
XA
XB
XC
XD
XE
XF
XG
XH
XI
XJ
XK
XL
XM
XN
XO
XP
XQ
XR
XS
XT
XU
XV
XW
XX
XY
XZ
X[
X\
X]
X^
X_
X`
Xa
Xb
Xc
Xd
Xe
Xf
Xg
Xh
Xi
Xj
Xk
Xl
Xm
Xn
Xo
Xp
Xq
Xr
Xs
Xt
Xu
Xv
Xw
Xx
Xy
Xz
X{
X|
X}
X~
X!!
X!"
X!#
X!$
X!%
X!&
X!'
X!(
X!)
X!*
X!+
X!,
X!-
X!.
X!/
X!0
X!1
X!2
X!3
X!4
X!5
X!6
X!7
X!8
X!9
X!:
X!;
X!<
X!=
X!>
X!?
X!@
X!A
X!B
X!C
X!D
X!E
X!F
X!G
X!H
X!I
X!J
X!K
X!L
X!M
X!N
X!O
X!P
X!Q
X!R
X!S
X!T
X!U
X!V
X!W
X!X
X!Y
X!Z
X![
X!\
X!]
X!^
$end
#500
$comment Sample -16 (Start) $end
1!
0"
1#
0$
0%
0&
0'
0(
0)
0*
0+
0,
0-
0.
0/
00
01
02
03
04
05
06
07
08
09
0:
0;
0<
0=
0>
0?
0@
0A
0B
0C
0D
0E
0F
0G
0H
1I
0J
0K
1L
1M
1N
0O
0P
0Q
1R
0S
0T
0U
0V
1W
0X
0Y
0Z
0[
0\
0]
0^
0_
0`
0a
0b
0c
0d
0e
0f
0g
0h
0i
0j
0k
0l
0m
0n
0o
0p
0q
0r
0s
0t
0u
0v
0w
0x
0y
0z
0{
0|
0}
0~
0!!
0!"
0!#
1!$
1!%
1!&
1!'
1!(
1!)
1!*
1!+
1!,
1!-
1!.
1!/
1!0
1!1
1!2
1!3
0!4
0!5
0!6
0!7
0!8
0!9
0!:
0!;
0!<
0!=
0!>
0!?
0!@
0!A
0!B
0!C
1!D
0!E
0!F
0!G
0!H
0!I
0!J
0!K
0!L
0!M
0!N
0!O
0!P
1!Q
0!R
0!S
1!T
1!U
1!V
0!W
0!X
0!Y
1!Z
0![
0!\
0!]
0!^
#1000
0!
#1500
1!
#2000
0!
#2500
1!
#3000
0!
#3500
1!
#4000
0!
#4500
1!
#5000
0!
#5500
1!
#6000
0!
#6500
1!
#7000
0!
#7500
1!
#8000
0!
#8500
1!
#9000
0!
#9500
1!
#10000
0!
#10500
1!
#11000
0!
#11500
1!
#12000
0!
#12500
1!
#13000
0!
#13500
1!
#14000
0!
#14500
1!
#15000
0!
#15500
1!
#16000
0!
#16500
$comment Sample 0 (Trigger) $end
1!
1"
0W
1v
1!N
#17000
0!
#17500
1!
0#
1$
1)
1,
1-
1.
12
1G
1H
1K
0M
0N
1g
1u
0v
1x
1y
1}
0!$
0!%
0!'
0!(
0!,
0!-
0!.
0!0
0!1
0!2
0!3
1!M
0!N
1!O
1!P
1!S
0!U
0!V
#18000
0!
#18500
1!
1#
0$
1%
19
1<
1=
1>
1B
0G
0H
0I
0K
0L
1M
1Q
0R
1S
1U
1V
1f
0g
1v
0!&
0!)
0!*
0!+
0!/
1!N
0!O
0!P
0!Q
0!S
0!T
1!U
1!Y
0!Z
1![
1!]
1!^
#19000
0!
#19500
1!
0#
0%
1&
0)
0,
0.
11
02
13
15
16
1G
1H
1I
1N
0Q
0U
0V
1g
1t
0u
0v
1w
0y
1|
0}
1~
1!"
1!#
1!&
1!)
1!*
1!+
1!/
1!L
0!M
0!N
1!O
1!P
1!Q
1!V
0!Y
0!]
0!^
#20000
0!
#20500
1!
1#
0&
0G
1J
1L
0M
1Q
1R
0S
1e
0f
0g
1v
0w
1!$
1!%
0!&
1!'
1!(
0!)
0!*
0!+
1!,
1!-
1!.
0!/
1!0
1!1
1!2
1!3
1!6
1!9
1!:
1!;
1!?
1!N
0!O
1!R
1!T
0!U
1!Y
1!Z
0![
#21000
0!
#21500
1!
0#
1$
1(
1)
1*
1,
0-
1.
12
03
05
06
1G
0J
1K
0N
0Q
1g
1u
0v
0x
1y
1}
0~
0!"
0!#
0!$
1!&
0!(
1!)
1!+
0!,
0!-
1!/
0!0
0!1
0!2
0!3
1!M
0!N
1!O
0!R
1!S
0!V
0!Y
#22000
0!
#22500
1!
1#
0$
18
1:
0=
1A
0G
0H
0I
0K
0L
0R
1T
1f
0g
1v
0!6
0!9
0!:
0!;
0!?
1!N
0!O
0!P
0!Q
0!S
0!T
0!Z
1!\
#23000
0!
#23500
1!
0#
1&
0(
0)
0*
0,
0.
01
02
14
1G
1H
1I
1M
1N
1S
0T
1g
1s
0t
0u
0v
1w
0y
0|
0}
1!!
1!K
0!L
0!M
0!N
1!O
1!P
1!Q
1!U
1!V
1![
0!\
#24000
0!
#24500
1!
1#
0&
0G
0H
0I
0M
0N
0S
1d
0e
0f
0g
1v
0w
0!%
0!&
0!'
0!)
0!+
0!.
0!/
1!5
1!6
1!7
1!9
1!;
1!>
1!?
1!N
0!O
0!P
0!Q
0!U
0!V
0![
#25000
0!
#25500
1!
0#
1$
04
1G
1H
1I
1K
1L
1R
1g
1u
0v
0!!
1!M
0!N
1!O
1!P
1!Q
1!S
1!T
1!Z
#26000
0!
#26500
1!
1#
0$
08
09
0:
0<
0>
0A
0B
0G
0H
0I
0K
0L
0R
1V
1f
0g
1v
0!5
0!6
0!7
0!9
0!;
0!>
0!?
1!N
0!O
0!P
0!Q
0!S
0!T
0!Z
1!^
#27000
0!
#27500
1!
0#
1&
16
1G
1H
1I
1M
1N
1S
0V
1g
1t
0u
0v
1w
1!#
1!L
0!M
0!N
1!O
1!P
1!Q
1!U
1!V
1![
0!^
#28000
0!
#28500
1!
1#
0&
0G
0I
1K
1L
0N
1Q
0S
1e
0f
0g
1v
0w
1!N
0!O
0!Q
1!S
1!T
0!V
1!Y
0![
#29000
0!
#29500
1!
0#
1$
1(
1+
1,
1-
11
06
1G
1I
0M
0Q
1R
1g
1u
0v
1x
1|
0!#
1!%
1!(
1!)
1!*
1!.
1!M
0!N
1!O
1!Q
0!U
0!Y
1!Z
#30000
0!
#30500
1!
1#
0$
18
1;
1<
1=
1A
0G
0H
0I
0K
0L
0R
1U
1f
0g
1v
1!N
0!O
0!P
0!Q
0!S
0!T
0!Z
1!]
#31000
0!
#31500
1!
0#
1&
0(
0+
0,
0-
01
15
1G
1H
1I
1M
1N
1S
0U
1g
1r
0s
0t
0u
0v
1w
0x
0|
1!"
1!J
0!K
0!L
0!M
0!N
1!O
1!P
1!Q
1!U
1!V
1![
0!]
#32000
0!
#32500
1!
1#
1%
0&
0G
0H
0I
0M
0N
1U
1c
0d
0e
0f
0g
1v
0w
0!%
0!(
0!)
0!*
0!.
1!5
1!8
1!9
1!:
1!>
1!N
0!O
0!P
0!Q
0!U
0!V
1!]
#33000
0!
#33500
1!
0#
1$
0%
13
1G
1H
1I
1K
1L
1R
0S
0U
1g
1u
0v
1~
1!0
1!2
1!M
0!N
1!O
1!P
1!Q
1!S
1!T
1!Z
0![
0!]
#34000
0!
#34500
1!
1#
0$
1%
08
0;
0<
0=
0A
1C
1E
0G
0H
0I
0K
0L
0R
1U
1V
1f
0g
1v
0!5
0!8
0!9
0!:
0!>
1!N
0!O
0!P
0!Q
0!S
0!T
0!Z
1!]
1!^
#35000
0!
#35500
1!
0#
0%
1&
03
16
1G
1H
1I
1M
1N
1S
0U
0V
1g
1t
0u
0v
1w
0~
1!#
1!L
0!M
0!N
1!O
1!P
1!Q
1!U
1!V
1![
0!]
0!^
#36000
0!
#36500
1!
1#
1%
0&
0G
0H
0I
0M
0N
0S
1V
1e
0f
0g
1v
0w
0!0
1!@
1!B
1!N
0!O
0!P
0!Q
0!U
0!V
0![
1!^
#37000
0!
#37500
1!
0#
0%
05
1G
1H
1I
1J
1K
1L
1N
1O
1P
1S
0V
1W
1g
0!"
1!0
1!3
1!O
1!P
1!Q
1!R
1!S
1!T
1!V
1!W
1!X
1![
0!^
#38000
0!
#38500
1!
1&
0W
1u
0v
1w
0!0
0!2
0!@
0!B
1!M
0!N
#39000
0!
#39500
1!
1#
1%
0&
0G
0H
0I
0J
0K
0L
0N
0O
0P
0S
1U
1f
0g
1v
0w
0!3
1!C
1!N
0!O
0!P
0!Q
0!R
0!S
0!T
0!V
0!W
0!X
0![
1!]
#40000
0!
#40500
1!
0#
1$
0%
15
06
1G
1H
1I
1J
1K
1L
1R
0U
1W
1g
1!"
0!#
1!3
1!O
1!P
1!Q
1!R
1!S
1!T
1!Z
0!]
#41000
0!
#41500
1!
0W
1s
0t
0u
0v
1!%
1!(
1!)
1!*
1!.
0!3
1!5
1!8
1!9
1!:
1!>
0!C
1!K
0!L
0!M
0!N
#42000
0!
#42500
1!
1#
0$
1%
18
1;
1<
1=
1A
0C
0E
0G
0H
0I
0J
0K
0L
0R
1U
1V
1d
0e
0f
0g
1v
0!%
0!(
0!)
0!*
0!.
1!N
0!O
0!P
0!Q
0!R
0!S
0!T
0!Z
1!]
1!^
#43000
0!
#43500
1!
0#
1$
0%
16
1G
1H
1I
1J
1L
1O
1P
1R
0U
0V
1W
1g
1!#
1!O
1!P
1!Q
1!R
1!T
1!W
1!X
1!Z
0!]
0!^
#44000
0!
#44500
1!
0W
1u
0v
1!%
1!(
1!)
1!*
1!/
1!1
1!2
0!5
0!8
0!9
0!:
0!>
1!@
1!B
1!M
0!N
#45000
0!
#45500
1!
1#
0$
0A
1B
1D
1E
0G
0H
0I
0J
0L
0O
0P
0R
1U
1f
0g
1v
0!%
0!(
0!)
0!*
0!/
0!1
1!N
0!O
0!P
0!Q
0!R
0!T
0!W
0!X
0!Z
1!]
#46000
0!
#46500
1!
0#
1&
06
1G
1H
1I
1M
1N
1S
0U
1g
1t
0u
0v
1w
0!#
1!%
1!(
1!)
1!*
1!/
1!1
1!L
0!M
0!N
1!O
1!P
1!Q
1!U
1!V
1![
0!]
#47000
0!
#47500
1!
1#
0&
0G
0H
0I
0M
0N
0S
1U
1e
0f
0g
1v
0w
0!%
0!(
0!)
0!*
0!/
0!1
1!5
1!8
1!9
1!:
1!?
0!@
1!A
1!N
0!O
0!P
0!Q
0!U
0!V
0![
1!]
#48000
0!
#48500
1!
0#
1$
1G
1H
1I
1J
1K
1L
1R
0U
1W
1g
1!%
1!(
1!)
1!*
1!/
1!1
1!O
1!P
1!Q
1!R
1!S
1!T
1!Z
0!]
#49000
0!
#49500
1!
0W
1u
0v
1!M
0!N
#50000
0!
#50500
1!
1#
0$
0G
0H
0I
0J
0K
0L
1T
1f
0g
1v
0!%
0!(
0!)
0!*
0!/
0!1
1!N
0!O
0!P
0!Q
0!R
0!S
0!T
1!\
#51000
0!
#51500
1!
0#
1%
12
14
05
1G
1H
1I
1M
1N
0R
0T
1V
1X
1g
0s
0u
0v
1}
1!!
0!"
1!%
1!(
1!)
1!*
1!/
1!1
0!K
0!M
0!N
1!O
1!P
1!Q
1!U
1!V
0!Z
0!\
1!^
#52000
0!
#52500
1!
1#
0G
0H
0I
0M
0N
0X
0d
0f
0g
1v
0!%
0!(
0!)
0!*
0!2
0!5
0!8
0!9
0!:
0!?
0!A
0!B
1!N
0!O
0!P
0!Q
0!U
0!V
#53000
0!
#53500
1!
0#
0%
02
04
16
1G
1H
1I
1J
1K
1L
1N
1O
1P
1S
0V
1W
1g
0}
0!!
1!#
0!/
0!1
1!3
1!O
1!P
1!Q
1!R
1!S
1!T
1!V
1!W
1!X
1![
0!^
#54000
0!
#54500
1!
1&
0W
1u
0v
1w
1!2
0!3
1!C
1!M
0!N
#55000
0!
#55500
1!
1#
1%
0&
0G
0H
0I
0J
0K
0L
0N
0O
0P
0S
1U
1f
0g
1v
0w
0!2
1!B
0!C
1!N
0!O
0!P
0!Q
0!R
0!S
0!T
0!V
0!W
0!X
0![
1!]
#56000
0!
#56500
1!
0#
1$
0%
15
06
1G
1H
1I
1J
1K
1L
1R
0U
1W
1g
1!"
0!#
1!2
1!O
1!P
1!Q
1!R
1!S
1!T
1!Z
0!]
#57000
0!
#57500
1!
0W
1s
0t
0u
0v
1!%
1!(
1!)
1!*
1!/
1!1
1!5
1!8
1!9
1!:
1!?
1!A
1!K
0!L
0!M
0!N
#58000
0!
#58500
1!
1#
0$
1%
0G
0H
0I
0J
0K
0L
0R
1U
1V
1d
0e
0f
0g
1v
0!%
0!(
0!)
0!*
0!/
0!1
1!N
0!O
0!P
0!Q
0!R
0!S
0!T
0!Z
1!]
1!^
#59000
0!
#59500
1!
0#
1$
0%
16
1G
1H
1I
1J
1L
1O
1P
1R
0U
0V
1W
1g
1!#
0!2
1!O
1!P
1!Q
1!R
1!T
1!W
1!X
1!Z
0!]
0!^
#60000
0!
#60500
1!
0W
1u
0v
1!%
1!(
1!)
1!*
1!0
1!1
0!5
0!8
0!9
0!:
0!?
1!@
0!A
1!M
0!N
#61000
0!
#61500
1!
1#
0$
1%
0B
1C
0E
0G
0H
0I
0J
0L
0O
0P
0R
1U
1f
0g
1v
0!%
0!(
0!)
0!*
0!0
0!1
1!N
0!O
0!P
0!Q
0!R
0!T
0!W
0!X
0!Z
1!]
#62000
0!
#62500
1!
0#
0%
1&
06
1G
1H
1I
1M
1N
1S
0U
1g
1t
0u
0v
1w
0!#
1!%
1!(
1!)
1!*
1!0
1!1
1!L
0!M
0!N
1!O
1!P
1!Q
1!U
1!V
1![
0!]
#63000
0!
#63500
1!
1#
1%
0&
0G
0H
0I
0M
0N
0S
1U
1e
0f
0g
1v
0w
0!%
0!(
0!)
0!*
0!0
0!1
1!5
1!8
1!9
1!:
1!A
0!B
1!N
0!O
0!P
0!Q
0!U
0!V
0![
1!]
#64000
0!
#64500
1!
0#
1$
0%
1G
1H
1I
1J
1K
1L
1R
0U
1W
1g
1!%
1!(
1!)
1!*
1!0
1!1
1!O
1!P
1!Q
1!R
1!S
1!T
1!Z
0!]
#65000
0!
#65500
1!
0W
1u
0v
1!M
0!N
#66000
0!
#66500
1!
1#
0$
0G
0H
0I
0J
0K
0L
1T
1f
0g
1v
0!%
0!(
0!)
0!*
0!0
0!1
1!N
0!O
0!P
0!Q
0!R
0!S
0!T
1!\
#67000
0!
#67500
1!
0#
1%
12
14
05
1G
1H
1I
1M
1N
0R
0T
1V
1X
1g
0s
0u
0v
1}
1!!
0!"
1!%
1!(
1!)
1!*
1!0
1!1
0!K
0!M
0!N
1!O
1!P
1!Q
1!U
1!V
0!Z
0!\
1!^
#68000
0!
#68500
1!
1#
0G
0H
0I
0M
0N
0X
0d
0f
0g
1v
0!%
0!(
0!)
0!*
0!0
0!5
0!8
0!9
0!:
0!@
0!A
1!N
0!O
0!P
0!Q
0!U
0!V
#69000
0!
#69500
1!
0#
0%
02
04
16
1G
1H
1I
1J
1K
1L
1N
1O
1P
1S
0V
1W
1g
0}
0!!
1!#
0!1
1!3
1!O
1!P
1!Q
1!R
1!S
1!T
1!V
1!W
1!X
1![
0!^
#70000
0!
#70500
1!
1&
0W
1u
0v
1w
1!2
1!B
1!M
0!N
#71000
0!
#71500
1!
1#
1%
0&
0G
0H
0I
0J
0K
0L
0N
0O
0P
0S
1U
1f
0g
1v
0w
0!2
0!3
1!C
1!N
0!O
0!P
0!Q
0!R
0!S
0!T
0!V
0!W
0!X
0![
1!]
#72000
0!
#72500
1!
0#
1$
0%
15
06
1G
1H
1I
1J
1K
1L
1R
0U
1W
1g
1!"
0!#
1!2
1!3
1!O
1!P
1!Q
1!R
1!S
1!T
1!Z
0!]
#73000
0!
#73500
1!
0W
1s
0t
0u
0v
1!%
1!(
1!)
1!*
1!0
1!1
0!2
0!3
1!5
1!8
1!9
1!:
1!@
1!A
0!B
0!C
1!K
0!L
0!M
0!N
#74000
0!
#74500
1!
1#
0$
1%
0G
0H
0I
0J
0K
0L
0R
1U
1V
1d
0e
0f
0g
1v
0!%
0!(
0!)
0!*
0!0
0!1
1!N
0!O
0!P
0!Q
0!R
0!S
0!T
0!Z
1!]
1!^
#75000
0!
#75500
1!
0#
1$
0%
16
1G
1H
1I
1J
1L
1O
1P
1R
0U
0V
1W
1g
1!#
1!O
1!P
1!Q
1!R
1!T
1!W
1!X
1!Z
0!]
0!^
#76000
0!
#76500
1!
0W
1u
0v
1!%
1!(
1!)
1!*
1!2
0!5
0!8
0!9
0!:
0!A
1!B
1!M
0!N
#77000
0!
#77500
1!
1#
0$
0C
0D
1E
0G
0H
0I
0J
0L
0O
0P
0R
1U
1f
0g
1v
0!%
0!(
0!)
0!*
1!N
0!O
0!P
0!Q
0!R
0!T
0!W
0!X
0!Z
1!]
#78000
0!
#78500
1!
0#
1&
06
1G
1H
1I
1M
1N
1S
0U
1g
1t
0u
0v
1w
0!#
1!%
1!(
1!)
1!*
1!L
0!M
0!N
1!O
1!P
1!Q
1!U
1!V
1![
0!]
#79000
0!
#79500
1!
1#
0&
0G
0H
0I
0M
0N
0S
1U
1e
0f
0g
1v
0w
0!%
0!(
0!)
0!*
1!5
1!8
1!9
1!:
0!@
1!N
0!O
0!P
0!Q
0!U
0!V
0![
1!]
#80000
0!
#80500
1!
0#
1$
1G
1H
1I
1J
1K
1L
1R
0U
1W
1g
1!%
1!(
1!)
1!*
1!O
1!P
1!Q
1!R
1!S
1!T
1!Z
0!]
#81000
0!
#81500
1!
0W
1u
0v
1!M
0!N
#82000
0!
#82500
1!
1#
0$
0G
0H
0I
0J
0K
0L
1T
1f
0g
1v
0!%
0!(
0!)
0!*
1!N
0!O
0!P
0!Q
0!R
0!S
0!T
1!\
#83000
0!
#83500
1!
0#
1%
12
14
05
1G
1H
1I
1M
1N
0R
0T
1V
1X
1g
0s
0u
0v
1}
1!!
0!"
1!%
1!(
1!)
1!*
0!K
0!M
0!N
1!O
1!P
1!Q
1!U
1!V
0!Z
0!\
1!^
#84000
0!
#84500
1!
1#
0%
0G
0H
0I
0M
0N
0X
0d
0f
0g
1v
0!%
0!(
0!)
0!*
0!2
0!5
0!8
0!9
0!:
0!B
1!N
0!O
0!P
0!Q
0!U
0!V
#85000
0!
#85500
1!
0#
02
04
16
1G
1H
1I
1J
1K
1L
1N
1O
1P
1S
0V
1W
1g
0}
0!!
1!#
1!3
1!O
1!P
1!Q
1!R
1!S
1!T
1!V
1!W
1!X
1![
0!^
#86000
0!
#86500
1!
1&
0W
1u
0v
1w
1!1
0!3
1!B
1!C
1!M
0!N
#87000
0!
#87500
1!
1#
1%
0&
0G
0H
0I
0J
0K
0L
0N
0O
0P
0S
1U
1f
0g
1v
0w
0!1
1!A
0!B
0!C
1!N
0!O
0!P
0!Q
0!R
0!S
0!T
0!V
0!W
0!X
0![
1!]
#88000
0!
#88500
1!
0#
1$
0%
15
06
1G
1H
1I
1J
1K
1L
1R
0U
1W
1g
1!"
0!#
1!1
1!O
1!P
1!Q
1!R
1!S
1!T
1!Z
0!]
#89000
0!
#89500
1!
0W
1s
0t
0u
0v
1!%
1!(
1!)
1!*
0!1
1!2
1!5
1!8
1!9
1!:
0!A
1!B
1!K
0!L
0!M
0!N
#90000
0!
#90500
1!
1#
0$
1%
0G
0H
0I
0J
0K
0L
0R
1U
1V
1d
0e
0f
0g
1v
0!%
0!(
0!)
0!*
1!N
0!O
0!P
0!Q
0!R
0!S
0!T
0!Z
1!]
1!^
#91000
0!
#91500
1!
0#
1$
0%
16
1G
1H
1I
1J
1L
1O
1P
1R
0U
0V
1W
1g
1!#
0!2
1!O
1!P
1!Q
1!R
1!T
1!W
1!X
1!Z
0!]
0!^
#92000
0!
#92500
1!
0W
1u
0v
1!%
1!(
1!)
1!+
1!,
1!-
1!.
1!/
1!0
0!5
0!8
0!9
0!:
1!@
1!M
0!N
#93000
0!
#93500
1!
1#
0$
1%
0=
1>
1?
1@
1A
1B
1C
0E
0G
0H
0I
0J
0L
0O
0P
0R
1U
1f
0g
1v
0!%
0!(
0!)
0!+
0!,
0!-
0!.
0!/
0!0
1!N
0!O
0!P
0!Q
0!R
0!T
0!W
0!X
0!Z
1!]
#94000
0!
#94500
1!
0#
0%
1&
06
1G
1H
1I
1M
1N
1S
0U
1g
1t
0u
0v
1w
0!#
1!%
1!(
1!)
1!+
1!,
1!-
1!.
1!/
1!0
1!L
0!M
0!N
1!O
1!P
1!Q
1!U
1!V
1![
0!]
#95000
0!
#95500
1!
1#
1%
0&
0G
0H
0I
0M
0N
0S
1U
1e
0f
0g
1v
0w
0!%
0!(
0!)
0!+
0!,
0!-
0!.
0!/
0!0
1!5
1!8
1!9
1!;
1!<
1!=
1!>
1!?
0!B
1!N
0!O
0!P
0!Q
0!U
0!V
0![
1!]
#96000
0!
#96500
1!
0#
1$
0%
1G
1H
1I
1J
1K
1L
1R
0U
1W
1g
1!%
1!(
1!)
1!+
1!,
1!-
1!.
1!/
1!0
1!O
1!P
1!Q
1!R
1!S
1!T
1!Z
0!]
#97000
0!
#97500
1!
0W
1u
0v
1!M
0!N
#98000
0!
#98500
1!
1#
0$
0G
0H
0I
0J
0K
0L
1T
1f
0g
1v
0!%
0!(
0!)
0!+
0!,
0!-
0!.
0!/
0!0
1!N
0!O
0!P
0!Q
0!R
0!S
0!T
1!\
#99000
0!
#99500
1!
0#
1%
12
14
05
1G
1H
1I
1M
1N
0R
0T
1V
1X
1g
0s
0u
0v
1}
1!!
0!"
1!%
1!(
1!)
1!+
1!,
1!-
1!.
1!/
1!0
0!K
0!M
0!N
1!O
1!P
1!Q
1!U
1!V
0!Z
0!\
1!^
#100000
0!
#100500
1!
1#
0G
0H
0I
0M
0N
0X
0d
0f
0g
1v
0!%
0!(
0!)
0!+
0!,
0!-
0!.
0!0
0!5
0!8
0!9
0!;
0!<
0!=
0!>
0!?
0!@
1!N
0!O
0!P
0!Q
0!U
0!V
#101000
0!
#101500
1!
0#
0%
02
04
16
1G
1H
1I
1J
1K
1L
1N
1O
1P
1S
0V
1W
1g
0}
0!!
1!#
0!/
1!3
1!O
1!P
1!Q
1!R
1!S
1!T
1!V
1!W
1!X
1![
0!^
#102000
0!
#102500
1!
1&
0W
1u
0v
1w
1!1
1!A
1!M
0!N
#103000
0!
#103500
1!
1#
1%
0&
0G
0H
0I
0J
0K
0L
0N
0O
0P
0S
1U
1f
0g
1v
0w
0!1
0!3
1!C
1!N
0!O
0!P
0!Q
0!R
0!S
0!T
0!V
0!W
0!X
0![
1!]
#104000
0!
#104500
1!
0#
1$
0%
15
06
1G
1H
1I
1J
1K
1L
1R
0U
1W
1g
1!"
0!#
1!1
1!3
1!O
1!P
1!Q
1!R
1!S
1!T
1!Z
0!]
#105000
0!
#105500
1!
0W
1s
0t
0u
0v
1!%
1!(
1!)
1!+
1!,
1!-
1!.
1!/
1!0
0!1
0!3
1!5
1!8
1!9
1!;
1!<
1!=
1!>
1!?
1!@
0!A
0!C
1!K
0!L
0!M
0!N
#106000
0!
#106500
1!
1#
0$
1%
0G
0H
0I
0J
0K
0L
0R
1U
1V
1d
0e
0f
0g
1v
0!%
0!(
0!)
0!+
0!,
0!-
0!.
0!/
0!0
1!N
0!O
0!P
0!Q
0!R
0!S
0!T
0!Z
1!]
1!^
#107000
0!
#107500
1!
0#
1$
0%
16
1G
1H
1I
1J
1L
1O
1P
1R
0U
0V
1W
1g
1!#
1!O
1!P
1!Q
1!R
1!T
1!W
1!X
1!Z
0!]
0!^
#108000
0!
#108500
1!
0W
1u
0v
1!%
1!(
1!)
1!+
1!,
1!-
1!.
1!0
1!1
1!2
0!5
0!8
0!9
0!;
0!<
0!=
0!>
0!?
1!B
1!M
0!N
#109000
0!
